type,p,r,f1,auc
refactoring,0.7441860465116279,0.7804878048780488,0.761904761904762,0.7039024390243902
refactoring,0.7555555555555555,0.7727272727272727,0.7640449438202247,0.6430785123966942
refactoring,0.7435897435897436,0.7631578947368421,0.7532467532467534,0.7913533834586466
refactoring,0.7209302325581395,0.7209302325581395,0.7209302325581395,0.6809908998988877
refactoring,0.8723404255319149,0.8367346938775511,0.8541666666666667,0.8109243697478992
refactoring,0.7894736842105263,0.75,0.7692307692307692,0.7149038461538462
refactoring,0.7272727272727273,0.7619047619047619,0.7441860465116279,0.6929563492063492
refactoring,0.8,0.8780487804878049,0.8372093023255814,0.811219512195122
refactoring,0.8205128205128205,0.7804878048780488,0.8,0.7878048780487805
refactoring,0.7333333333333333,0.7674418604651163,0.7499999999999999,0.7639029322548029
refactoring,0.8157894736842105,0.6888888888888889,0.746987951807229,0.7486772486772487
refactoring,0.8536585365853658,0.7291666666666666,0.7865168539325843,0.734375
refactoring,0.8,0.7111111111111111,0.7529411764705882,0.71005291005291
refactoring,0.8536585365853658,0.7,0.7692307692307692,0.74375
refactoring,0.7714285714285715,0.6923076923076923,0.7297297297297296,0.7606837606837606
refactoring,0.7954545454545454,0.875,0.8333333333333334,0.7932692307692307
refactoring,0.75,0.7857142857142857,0.7674418604651163,0.6592261904761905
refactoring,0.8648648648648649,0.6956521739130435,0.7710843373493975,0.7913043478260869
refactoring,0.8,0.782608695652174,0.7912087912087912,0.7603260869565217
refactoring,0.8157894736842105,0.775,0.7948717948717949,0.7663461538461539
refactoring,0.717948717948718,0.6829268292682927,0.7000000000000001,0.6941463414634146
refactoring,0.8974358974358975,0.7777777777777778,0.8333333333333333,0.7825396825396825
refactoring,0.75,0.7297297297297297,0.7397260273972601,0.7781919850885368
refactoring,0.7560975609756098,0.7045454545454546,0.7294117647058823,0.6978305785123967
refactoring,0.6976744186046512,0.75,0.7228915662650603,0.6134615384615385
refactoring,0.8,0.7777777777777778,0.7887323943661971,0.8583333333333333
refactoring,0.7714285714285715,0.675,0.72,0.7475961538461539
refactoring,0.7954545454545454,0.813953488372093,0.8045977011494252,0.7992922143579373
refactoring,0.6888888888888889,0.775,0.7294117647058822,0.6634615384615384
refactoring,0.8205128205128205,0.6956521739130435,0.7529411764705882,0.6565217391304348
refactoring,0.7941176470588235,0.6,0.6835443037974683,0.7195767195767195
refactoring,0.7,0.6829268292682927,0.6913580246913581,0.6585365853658537
refactoring,0.8823529411764706,0.5882352941176471,0.7058823529411764,0.7803921568627451
refactoring,0.7777777777777778,0.7954545454545454,0.7865168539325843,0.7804752066115702
refactoring,0.8285714285714286,0.6744186046511628,0.7435897435897435,0.7694641051567239
refactoring,0.7352941176470589,0.5952380952380952,0.6578947368421053,0.625
refactoring,0.8378378378378378,0.6595744680851063,0.7380952380952381,0.7295632698768197
refactoring,0.7441860465116279,0.8205128205128205,0.7804878048780488,0.7492877492877493
refactoring,0.8048780487804879,0.75,0.7764705882352942,0.7505165289256198
refactoring,0.825,0.717391304347826,0.7674418604651162,0.741304347826087
refactoring,0.7659574468085106,0.8372093023255814,0.8,0.7674418604651163
refactoring,0.6428571428571429,0.75,0.6923076923076924,0.7481481481481481
refactoring,0.8095238095238095,0.7906976744186046,0.8,0.8119312436804853
refactoring,0.8780487804878049,0.72,0.7912087912087912,0.751875
refactoring,0.7027027027027027,0.6666666666666666,0.6842105263157895,0.7193732193732194
refactoring,0.8888888888888888,0.8,0.8421052631578948,0.6725
refactoring,0.7692307692307693,0.6521739130434783,0.7058823529411764,0.6771739130434783
refactoring,0.7674418604651163,0.8048780487804879,0.7857142857142858,0.7282926829268292
refactoring,0.7441860465116279,0.7804878048780488,0.761904761904762,0.7385365853658536
refactoring,0.7692307692307693,0.7142857142857143,0.7407407407407408,0.6750992063492064
