bug,0.6730769230769231,0.5932203389830508,0.6306306306306306,0.757152042613619
bug,0.7319148936170212,0.6288848263254113,0.6764995083579155,0.7723842523702223
bug,0.7092511013215859,0.6098484848484849,0.6558044806517311,0.7647397891963109
bug,0.7172131147540983,0.6591337099811676,0.6869479882237487,0.7825011122690899
bug,0.7241379310344828,0.5424354243542435,0.6202531645569621,0.7803181820945063
bug,0.7349397590361446,0.6535714285714286,0.6918714555765595,0.7856991268493815
bug,0.6997929606625258,0.6305970149253731,0.6633954857703631,0.7863121180394926
bug,0.7127192982456141,0.5877034358047016,0.6442021803766105,0.765748449579475
bug,0.711340206185567,0.655893536121673,0.6824925816023739,0.7794493710672632
bug,0.7096774193548387,0.596745027124774,0.6483300589390962,0.7546194036190638
