deprecated,0.6923076923076923,0.6338028169014085,0.661764705882353,0.789453589003903
deprecated,0.7272727272727273,0.6285714285714286,0.6743295019157088,0.7924107142857143
deprecated,0.746268656716418,0.6493506493506493,0.6944444444444445,0.8009782425366841
deprecated,0.7348484848484849,0.6554054054054054,0.692857142857143,0.8000211148648648
deprecated,0.7969924812030075,0.6751592356687898,0.7310344827586206,0.7951448939131902
deprecated,0.6666666666666666,0.609375,0.6367346938775511,0.7491102430555555
deprecated,0.6637168141592921,0.5769230769230769,0.6172839506172838,0.7593344857389801
deprecated,0.7107438016528925,0.581081081081081,0.6394052044609665,0.7557221283783784
deprecated,0.7477477477477478,0.5804195804195804,0.6535433070866142,0.805276541640178
deprecated,0.6992481203007519,0.6940298507462687,0.6966292134831462,0.8160705095213587
