resource,0.6939890710382514,0.46863468634686345,0.5594713656387665,0.763960398899488
resource,0.6263157894736842,0.43911439114391143,0.5162689804772234,0.7420981939760689
resource,0.6974358974358974,0.5018450184501845,0.5836909871244634,0.7819123201016746
