type,p,r,f1,auc
feature,0.7172284644194756,0.5883256528417818,0.6464135021097046,0.7022113302177134
feature,0.7274401473296501,0.6058282208588958,0.6610878661087868,0.7274241272598947
feature,0.7552182163187856,0.5993975903614458,0.6683459277917717,0.7227948865988366
feature,0.7439252336448599,0.5835777126099707,0.6540673788003288,0.7144942034149149
feature,0.7517985611510791,0.6066763425253991,0.6714859437751004,0.7300215507762677
feature,0.6803118908382066,0.5461658841940532,0.6059027777777778,0.6952093181928944
feature,0.7154471544715447,0.5407066052227343,0.6159230096237971,0.7118540109535209
feature,0.7094339622641509,0.5838509316770186,0.6405451448040886,0.7134713776245759
feature,0.7394495412844037,0.6209553158705701,0.6750418760469011,0.7415132164326482
feature,0.7235188509874326,0.6152671755725191,0.665016501650165,0.7255480698704192
feature,0.7291666666666666,0.586890243902439,0.6503378378378378,0.7165680296508847
feature,0.7366482504604052,0.5970149253731343,0.6595218466611706,0.71732380146798
feature,0.7103718199608611,0.5610510046367851,0.6269430051813472,0.7064264215407142
feature,0.7476635514018691,0.6144393241167435,0.6745362563237775,0.7452627922250629
feature,0.7590822179732314,0.5778748180494906,0.656198347107438,0.7310524292109527
feature,0.7370441458733206,0.5898617511520737,0.6552901023890785,0.7215184033262227
feature,0.701627486437613,0.5914634146341463,0.6418527708850289,0.6956463849397853
feature,0.7291666666666666,0.5950540958268934,0.6553191489361703,0.7372312155969521
feature,0.7439252336448599,0.5913818722139673,0.6589403973509934,0.7261357180316406
feature,0.7432950191570882,0.5817091454272864,0.6526492851135409,0.7346749352596429
feature,0.7480769230769231,0.5805970149253732,0.6537815126050421,0.7263117683975007
feature,0.7351247600767754,0.5648967551622419,0.6388657214345288,0.7151846257408836
feature,0.7364341085271318,0.5563689604685212,0.633861551292744,0.7096637987288948
feature,0.7299270072992701,0.6163328197226502,0.6683375104427736,0.7329138544673278
feature,0.7233644859813084,0.5758928571428571,0.6412593206296604,0.6956517584097859
feature,0.7470817120622568,0.5748502994011976,0.649746192893401,0.7299158513573945
feature,0.7289377289377289,0.603030303030303,0.660033167495854,0.726479788912464
feature,0.7438330170777988,0.5816023738872403,0.652789342214821,0.7200326792028023
feature,0.7286245353159851,0.5790251107828656,0.6452674897119342,0.7167487280485804
feature,0.726605504587156,0.6130030959752322,0.6649874055415617,0.721474736083022
feature,0.7476099426386233,0.5906344410876133,0.6599156118143461,0.7286478321221523
feature,0.7178030303030303,0.575113808801214,0.6385846672283068,0.7201568032372281
feature,0.7378277153558053,0.600609756097561,0.6621848739495798,0.7244454045476284
feature,0.7485493230174082,0.5908396946564886,0.6604095563139932,0.7514017549102171
feature,0.7080979284369114,0.5696969696969697,0.6314021830394626,0.7044012839344975
feature,0.7490421455938697,0.5924242424242424,0.6615905245346869,0.7233597192753387
feature,0.7386138613861386,0.5782945736434109,0.648695652173913,0.7179270342061039
feature,0.7461832061068703,0.5818452380952381,0.653846153846154,0.72850999344692
feature,0.7175141242937854,0.58887171561051,0.6468590831918506,0.7158491282301581
feature,0.7458563535911602,0.6071964017991005,0.6694214876033058,0.7318386261414748
feature,0.7256461232604374,0.5598159509202454,0.6320346320346321,0.7145732667354362
feature,0.7049504950495049,0.5588697017268446,0.6234676007005254,0.7149217777296595
feature,0.6956521739130435,0.5560821484992101,0.6180860403863038,0.7066047739617823
feature,0.7304964539007093,0.6023391812865497,0.6602564102564104,0.7217943232063899
feature,0.7414448669201521,0.5864661654135338,0.6549118387909321,0.7151043369292798
feature,0.7461240310077519,0.5737704918032787,0.6486941870261163,0.7209730160549833
feature,0.7134935304990758,0.5884146341463414,0.6449456975772765,0.7084039824355463
feature,0.7032136105860114,0.577639751552795,0.6342710997442456,0.7083075889130976
feature,0.7206703910614525,0.591743119266055,0.649874055415617,0.7221538720593588
feature,0.6968576709796673,0.573820395738204,0.6293823038397329,0.6914913568166993
