type,p,r,f1,auc
single,0.6934389140271493,0.522814498933902,0.5961585217602724,0.7694271191248196
single,0.7032404775440592,0.5143451143451143,0.5941402497598464,0.7673383520028887
single,0.7065026362038664,0.503338898163606,0.5878625396051669,0.7651427422490555
single,0.6957284961966061,0.4970735785953177,0.5798585710802243,0.7604948110213056
single,0.6878873239436619,0.5186915887850467,0.5914264955194962,0.7624548990161067
single,0.705135603000577,0.52,0.5985794758755818,0.7704591681568799
single,0.7100591715976331,0.49648324369052543,0.5843681519357194,0.7625467472883166
single,0.6972040452111838,0.49181703734788085,0.5767716535433071,0.762003222683038
single,0.6960950764006791,0.5161561057490558,0.5927710843373494,0.7628959700717989
single,0.7072222222222222,0.5258157786038827,0.6031746031746031,0.7648446075441193
single,0.6915254237288135,0.5228534814181973,0.5954755533933349,0.7704104818982284
single,0.6854928017718716,0.5288338316958565,0.5970581142994936,0.7641197132189518
single,0.684593837535014,0.5167019027484143,0.5889156626506024,0.7661240734974285
single,0.6998304126625212,0.5234672304439746,0.5989356555394292,0.7650658377537772
single,0.7176749703440095,0.5127118644067796,0.5981216015818092,0.7773759426994247
single,0.7221259387637204,0.519318653926049,0.6041565973900435,0.7708894079761308
single,0.709658421672556,0.4989648033126294,0.5859469973255531,0.7688806547581355
single,0.6993689041881813,0.5158696572154041,0.5937652216268875,0.7716986103917945
single,0.6951289398280802,0.5201543739279588,0.5950453765023301,0.7714752164571856
single,0.6933879461673493,0.49395581492288454,0.576923076923077,0.7631849479179194
single,0.6947308132875143,0.5041562759767249,0.5842967244701349,0.7569568114383806
single,0.7178303519907675,0.516825924387204,0.6009661835748793,0.7705169956801623
single,0.6900452488687783,0.5134680134680135,0.5888030888030888,0.7631598725348725
single,0.6957730812013349,0.5278481012658228,0.6002879078694818,0.7635548219913962
single,0.6901330376940134,0.5291117722056948,0.5989896560019244,0.7639492274495713
single,0.7106773823191733,0.5020275750202757,0.5884030418250951,0.759456581117629
single,0.7151972157772621,0.5101365328920149,0.595508331320937,0.7688364153311691
single,0.7061177815894797,0.522419627749577,0.6005348893751519,0.7703005011063386
single,0.6955307262569832,0.5228895422091558,0.5969791416926395,0.769300443238323
single,0.7086752637749121,0.5175513698630136,0.5982187036120732,0.7767953611102443
single,0.7079593058049073,0.4920965058236273,0.5806134969325154,0.7690402634208182
single,0.705586592178771,0.5266889074228523,0.6031518624641834,0.7714129528230047
single,0.70193401592719,0.5182696346073079,0.5962792945155835,0.7724495322611575
single,0.6913996627318718,0.5070074196207749,0.5850178359096313,0.7595495274984666
single,0.688533941814033,0.5144927536231884,0.5889241278360575,0.7671833973328114
single,0.7074183976261128,0.4977035490605428,0.5843137254901961,0.7653679261082463
single,0.6810198300283287,0.5110544217687075,0.5839203303376246,0.7588501290104143
single,0.7078039927404719,0.48831385642737896,0.5779204741911583,0.7676278734159094
single,0.6813914964108228,0.5402802101576182,0.6026862026862027,0.7705336469383463
single,0.7013651877133106,0.5193765796124684,0.5968054211035818,0.7701111858024395
single,0.7172774869109948,0.5055350553505535,0.5930735930735931,0.7659108711943675
single,0.695356738391846,0.5151006711409396,0.5918072289156627,0.7635521451710402
single,0.6726256983240223,0.5119047619047619,0.5813616610333172,0.7581362421971076
single,0.688737973967176,0.5143702451394759,0.5889184611662232,0.7624185947485996
single,0.7086477074869414,0.5106649937264742,0.5935828877005347,0.7673691854046736
single,0.6948674562887761,0.5209302325581395,0.5954567423876268,0.7707238237795295
single,0.7007424328954883,0.5194750211685013,0.5966447848285923,0.7694288099537377
single,0.7156123041207196,0.5122559202326548,0.597094430992736,0.7656630188492901
single,0.7036625971143174,0.5272349272349273,0.6028048490610888,0.7704784120119583
single,0.6718834322719913,0.5380293863439931,0.597552195824334,0.7578625027452788
