type,p,r,f1,auc
merge,0.6,0.2727272727272727,0.37499999999999994,0.8162878787878788
merge,0.8,0.2222222222222222,0.3478260869565218,0.755982905982906
merge,0.3333333333333333,0.08333333333333333,0.13333333333333333,0.8585680751173709
merge,1.0,0.18181818181818182,0.3076923076923077,0.7058080808080808
merge,0.6,0.3,0.4,0.8178082191780822
merge,1.0,0.15384615384615385,0.2666666666666667,0.8587912087912087
merge,0.0,0.0,0.0,0.6564102564102564
merge,1.0,0.4166666666666667,0.5882352941176471,0.8720657276995305
merge,0.2857142857142857,0.3333333333333333,0.30769230769230765,0.8041125541125541
merge,0.6,0.3,0.4,0.7479452054794521
merge,0.6666666666666666,0.4444444444444444,0.5333333333333333,0.918918918918919
merge,0.6666666666666666,0.16666666666666666,0.26666666666666666,0.8356807511737089
merge,0.7142857142857143,0.625,0.6666666666666666,0.9416666666666667
merge,0.2857142857142857,0.25,0.26666666666666666,0.8666666666666667
merge,0.3333333333333333,0.4,0.3636363636363636,0.7833333333333333
merge,0.8333333333333334,0.35714285714285715,0.5,0.7924430641821946
merge,0.5714285714285714,0.4,0.47058823529411764,0.8527397260273972
merge,0.5,0.3333333333333333,0.4,0.6576576576576577
merge,0.16666666666666666,0.08333333333333333,0.1111111111111111,0.7881455399061033
merge,0.6,0.375,0.4615384615384615,0.8125
merge,0.5714285714285714,0.4,0.47058823529411764,0.836986301369863
merge,0.3333333333333333,0.125,0.18181818181818182,0.8525
merge,0.5,0.16666666666666666,0.25,0.7764084507042254
merge,1.0,0.45454545454545453,0.625,0.8945707070707071
merge,0.4,0.2,0.26666666666666666,0.8945205479452055
merge,0.6666666666666666,0.2,0.30769230769230765,0.7308219178082191
merge,0.6666666666666666,0.36363636363636365,0.4705882352941177,0.8838383838383839
merge,0.6666666666666666,0.25,0.36363636363636365,0.8441666666666666
merge,0.6666666666666666,0.14285714285714285,0.23529411764705882,0.765527950310559
merge,0.5,0.36363636363636365,0.4210526315789474,0.8667929292929293
merge,0.75,0.21428571428571427,0.3333333333333333,0.8473084886128365
merge,0.42857142857142855,0.3,0.3529411764705882,0.7917808219178082
merge,0.5,0.25,0.3333333333333333,0.7658333333333334
merge,0.75,0.23076923076923078,0.3529411764705882,0.8923076923076924
merge,0.3333333333333333,0.07692307692307693,0.125,0.8598901098901099
merge,0.4,0.13333333333333333,0.2,0.7504901960784314
merge,0.6666666666666666,0.2222222222222222,0.3333333333333333,0.8648648648648649
merge,0.3333333333333333,0.07142857142857142,0.11764705882352941,0.8250517598343685
merge,0.4,0.18181818181818182,0.25000000000000006,0.827020202020202
merge,0.0,0.0,0.0,0.6897260273972603
merge,0.25,0.14285714285714285,0.18181818181818182,0.8900375939849624
merge,0.6666666666666666,0.46153846153846156,0.5454545454545455,0.8703296703296703
merge,1.0,0.18181818181818182,0.3076923076923077,0.8409090909090909
merge,0.45454545454545453,0.29411764705882354,0.35714285714285715,0.7976827094474154
merge,0.5,0.3,0.37499999999999994,0.8883561643835617
merge,0.5714285714285714,0.3333333333333333,0.4210526315789474,0.7353286384976526
merge,0.6666666666666666,0.26666666666666666,0.3809523809523809,0.9004901960784314
merge,0.5555555555555556,0.3125,0.39999999999999997,0.7052238805970149
merge,0.0,0.0,0.0,0.8129699248120301
merge,0.5,0.3333333333333333,0.4,0.8246753246753247
