type,p,r,f1,auc
multiple,0.686046511627907,0.4013605442176871,0.5064377682403434,0.7747417904038691
multiple,0.6511627906976745,0.4057971014492754,0.5,0.7582047685834502
multiple,0.6436781609195402,0.3522012578616352,0.4552845528455284,0.7542926160475288
multiple,0.6274509803921569,0.43537414965986393,0.5140562248995983,0.7575089836599092
multiple,0.6888888888888889,0.3803680981595092,0.4901185770750988,0.7784630287374878
multiple,0.7468354430379747,0.4041095890410959,0.5244444444444444,0.7949401251927788
multiple,0.6741573033707865,0.40816326530612246,0.5084745762711865,0.8011729608787036
multiple,0.6296296296296297,0.3722627737226277,0.4678899082568807,0.7843312131809327
multiple,0.7216494845360825,0.45751633986928103,0.5599999999999999,0.7971972969978952
multiple,0.7261904761904762,0.39869281045751637,0.5147679324894515,0.7744211809017393
multiple,0.6875,0.3900709219858156,0.497737556561086,0.7922932982188647
multiple,0.7831325301204819,0.43333333333333335,0.5579399141630902,0.7946420581655481
multiple,0.6283185840707964,0.5259259259259259,0.5725806451612903,0.7903325050289907
multiple,0.6847826086956522,0.44680851063829785,0.5407725321888412,0.7750248342458474
multiple,0.594059405940594,0.4,0.4780876494023904,0.7192393736017897
multiple,0.7142857142857143,0.39473684210526316,0.5084745762711864,0.7625466749644382
multiple,0.6635514018691588,0.5378787878787878,0.5941422594142258,0.8080168776371308
multiple,0.6666666666666666,0.4722222222222222,0.5528455284552845,0.7934370431286549
multiple,0.625,0.42857142857142855,0.5084745762711864,0.7811340445269017
multiple,0.6153846153846154,0.32,0.4210526315789474,0.7417897091722595
multiple,0.6777777777777778,0.37888198757763975,0.4860557768924303,0.7616053844655571
multiple,0.7037037037037037,0.3904109589041096,0.5022026431718062,0.7698108500408237
multiple,0.6555555555555556,0.4041095890410959,0.5,0.7549668874172185
multiple,0.6710526315789473,0.3422818791946309,0.4533333333333333,0.7672218356490315
multiple,0.6310679611650486,0.4421768707482993,0.52,0.7474405044409791
multiple,0.72,0.32335329341317365,0.44628099173553726,0.776173631384917
multiple,0.6346153846153846,0.4520547945205479,0.528,0.7418692733375669
multiple,0.64,0.43537414965986393,0.5182186234817814,0.7743349831627003
multiple,0.6292134831460674,0.4057971014492754,0.49339207048458156,0.7856241234221599
multiple,0.676056338028169,0.3018867924528302,0.4173913043478261,0.7576004874757895
multiple,0.7875,0.39622641509433965,0.5271966527196653,0.8216687340863094
multiple,0.723404255319149,0.44155844155844154,0.5483870967741935,0.7919979680183762
multiple,0.6333333333333333,0.3986013986013986,0.48927038626609437,0.7416026596354465
multiple,0.75,0.4768211920529801,0.582995951417004,0.7956162062122327
multiple,0.6944444444444444,0.2976190476190476,0.41666666666666663,0.7757227891156463
multiple,0.7397260273972602,0.3333333333333333,0.4595744680851064,0.7883644133644133
multiple,0.7529411764705882,0.4025157232704403,0.5245901639344263,0.7807011816935431
multiple,0.6862745098039216,0.5072463768115942,0.5833333333333334,0.7921107994389902
multiple,0.6363636363636364,0.42,0.5060240963855421,0.752751677852349
multiple,0.7195121951219512,0.38311688311688313,0.5,0.8050401978973407
multiple,0.6774193548387096,0.42,0.5185185185185185,0.7537360178970918
multiple,0.6736842105263158,0.4155844155844156,0.5140562248995985,0.7681221839385105
multiple,0.7093023255813954,0.4326241134751773,0.5374449339207049,0.7911266662046342
multiple,0.7468354430379747,0.38562091503267976,0.5086206896551725,0.7987038883349951
multiple,0.6019417475728155,0.4397163120567376,0.5081967213114754,0.7756832305311063
multiple,0.5897435897435898,0.46,0.5168539325842696,0.7450335570469798
multiple,0.6363636363636364,0.48951048951048953,0.5533596837944665,0.7975008597959418
multiple,0.6710526315789473,0.3541666666666667,0.4636363636363636,0.7959155701754386
multiple,0.6213592233009708,0.49230769230769234,0.5493562231759657,0.768347847121432
multiple,0.696969696969697,0.4339622641509434,0.5348837209302327,0.7913973580553197
